{getTBinR}
…
Get the WHO TB burden data.

```r
tb_burden <- getTBinR::get_tb_burden(verbose = FALSE)
```

Inspect the data.

```r
print(tb_burden, n = 3, n_extra = 10)
```

```
## # A tibble: 3,850 x 68
##   country iso2  iso3  iso_numeric g_whoregion  year e_pop_num e_inc_100k
##   <chr>   <chr> <chr>       <int> <chr>       <int>     <int>      <dbl>
## 1 Afghan… AF    AFG             4 Eastern Me…  2000  20093756        190
## 2 Afghan… AF    AFG             4 Eastern Me…  2001  20966463        189
## 3 Afghan… AF    AFG             4 Eastern Me…  2002  21979923        189
## # … with 3,847 more rows, and 60 more variables: e_inc_100k_lo <dbl>,
## #   e_inc_100k_hi <dbl>, e_inc_num <int>, e_inc_num_lo <int>,
## #   e_inc_num_hi <int>, e_tbhiv_prct <dbl>, e_tbhiv_prct_lo <dbl>,
## #   e_tbhiv_prct_hi <dbl>, e_inc_tbhiv_100k <dbl>,
## #   e_inc_tbhiv_100k_lo <dbl>, …
```
…
